Velogames solver - Stage race
…
154

Wilma Olausson
Uno-X Pro Cycling Team
4
1.8%
2.0
aaillmnoossuw
0.5
0
0.0

154×10 DataFrame
 Row │         rider                  team                              cost   ⋯
     │ String  String                 String                            Int64  ⋯
─────┼──────────────────────────────────────────────────────────────────────────
   1 │         Demi Vollering         Team SD Worx                         26  ⋯
   2 │         Annemiek Van Vleuten   Movistar Team                        22
   3 │         Lorena Wiebes          Team SD Worx                         20
   4 │         Elisa Longo Borghini   Lidl - Trek                          16
   5 │         Ashleigh Moolman       AG Insurance - Soudal Quick-Step     14  ⋯
   6 │         Katarzyna Niewiadoma   Canyon//SRAM Racing                  14
   7 │         Cecilie Uttrup Ludwig  FDJ - SUEZ                           14
   8 │         Charlotte Kool         Team DSM                             14
   9 │         Juliette Labous        Team DSM                             14  ⋯
  10 │         Marianne Vos           Team Jumbo-Visma                     14
  11 │         Lotte Kopecky          Team SD Worx                         14
  ⋮  │   ⋮               ⋮                           ⋮                    ⋮    ⋱
 145 │         Tiril Jørgensen        Team Coop - Hitec Products            4
 146 │         Josie Nelson           Team Coop - Hitec Products            4  ⋯
 147 │         Jessica Allen          Team Jayco AlUla                      4
 148 │         Teniel Campbell        Team Jayco AlUla                      4
 149 │         Georgie Howe           Team Jayco AlUla                      4
 150 │         Nina Kessler           Team Jayco AlUla                      4  ⋯
 151 │         Amber Pate             Team Jayco AlUla                      4
 152 │         Marte Berg Edseth      Uno-X Pro Cycling Team                4
 153 │         Hannah Ludwig          Uno-X Pro Cycling Team                4
 154 │         Wilma Olausson         Uno-X Pro Cycling Team                4  ⋯
                                                  6 columns and 133 rows omitted
…
